{
  "changes": [
    {
      "description": "Bump version of jackson-databind to 2.17.2 to fix security issues.",
      "type": "minor"
    }
  ],
  "created_at": "2024-07-30T09:11:01+00:00",
  "version": "0.5.0"
}